…
``` r
hawai_df<-hawai%>%
  tibble(line=1:50,texto=Letra)
hawai_df
```

    ## # A tibble: 50 x 3
    ##    Letra                                line texto                              
    ##    <chr>                               <int> <chr>                              
    ##  1 Deja de mentirte (ah)                   1 Deja de mentirte (ah)              
    ##  2 La foto que subiste con él diciend…     2 La foto que subiste con él diciend…
    ##  3 Bebé                                    3 Bebé                               
    ##  4 No te diré quién                        4 No te diré quién                   
    ##  5 Por mí te vieron                        5 Por mí te vieron                   
    ##  6 Déjame decirte                          6 Déjame decirte                     
    ##  7 Se ve que él te trata bien              7 Se ve que él te trata bien         
    ##  8 Pero eso no cambiará que yo llegué…     8 Pero eso no cambiará que yo llegué…
    ##  9 Sé que te va ir bien pero no te qu…     9 Sé que te va ir bien pero no te qu…
    ## 10 Puede que no te haga falta na'         10 Puede que no te haga falta na'     
    ## # … with 40 more rows

## Partir la canción por palabras

``` r
hawai_df%>%
  unnest_tokens(word,Letra)%>%
  filter(!word %in% stop_words_es)%>%
  count(word,sort=TRUE)
```

    ## # A tibble: 76 x 2
    ##    word          n
    ##    <chr>     <int>
    ##  1 na            6
    ##  2 va            6
    ##  3 bien          4
    ##  4 falta         4
    ##  5 haga          4
    ##  6 hawái         4
    ##  7 instagram     4
    ##  8 lindo         4
    ##  9 pa            4
    ## 10 posteas       4
    ## # … with 66 more rows
…
Modelo de Zipf

``` r
freq_words
```

    ## # A tibble: 67 x 4
    ##    word           n  rank frequency
    ##    <chr>      <int> <int>     <dbl>
    ##  1 bien           4     1   0.0142 
    ##  2 falta          4     2   0.0142 
    ##  3 haga           4     3   0.0142 
    ##  4 hawái          4     4   0.0142 
    ##  5 instagram      4     5   0.0142 
    ##  6 lindo          4     6   0.0142 
    ##  7 posteas        4     7   0.0142 
    ##  8 puede          4     8   0.0142 
    ##  9 vacaciones     4     9   0.0142 
    ## 10 ahora          2    10   0.00709
    ## # … with 57 more rows
…
hawai_tf_idf<-freq_words%>%
  left_join(hawai_df%>%
  unnest_tokens(word,Letra)%>%
  filter(!word %in% stop_words_es)%>%
  mutate(word=gsub('\\b[[:alpha:]]{1,3}\\b','',word))%>%
  filter(word!=''), by='word')%>%
  distinct(word,.keep_all = TRUE)%>%
  bind_tf_idf(word, line, n)%>%
  select(-texto)

hawai_tf_idf %>%
  arrange(desc(tf_idf))
```

    ## # A tibble: 67 x 6
    ##    word          n  line    tf   idf tf_idf
    ##    <chr>     <int> <int> <dbl> <dbl>  <dbl>
    ##  1 bebé          2     3     1  3.47   3.47
    ##  2 cómo          2    13     1  3.47   3.47
    ##  3 vieron        2     5     1  3.47   3.47
    ##  4 baby          1    32     1  3.47   3.47
    ##  5 fuimo         1    23     1  3.47   3.47
    ##  6 hablar        1    29     1  3.47   3.47
    ##  7 jaja          1    48     1  3.47   3.47
    ##  8 maluma        1    46     1  3.47   3.47
    ##  9 mamacita      1    44     1  3.47   3.47
    ## 10 preguntas     1    27     1  3.47   3.47
    ## # … with 57 more rows
…
Ahora analicemos esta canción por grupos de palabras , esto se hara con
un token de tres palabras

``` r
hawai_ngram<-hawai_df%>%
  unnest_tokens(ngram,Letra,token = 'ngrams',n=2)

hawai_ngram%>%
  count(ngram,sort=TRUE)%>%
  filter(!is.na(ngram))
```

    ## # A tibble: 144 x 2
    ##    ngram             n
    ##    <chr>         <int>
    ##  1 no te             7
    ##  2 que yo            5
    ##  3 te va             5
    ##  4 de vacaciones     4
    ##  5 en instagram      4
    ##  6 falta na          4
    ##  7 haga falta        4
    ##  8 hawái de          4
    ##  9 instagram lo      4
    ## 10 lindo en          4
    ## # … with 134 more rows
…
``` r
library(tidyr)
hawai_ngram%>%
  select(-texto)%>%
  separate(ngram, c("word1", "word2"), sep = " ")%>%
  filter(!word1 %in% c('na'))%>%
  filter(!word2 %in% c('na'))%>%
  # filter(!word1 %in% stop_words_es)%>%
  # filter(!word2 %in% stop_words_es)%>%
  na.omit()%>%
  count(word1, word2, sort = TRUE)
```

    ## # A tibble: 142 x 3
    ##    word1     word2          n
    ##    <chr>     <chr>      <int>
    ##  1 no        te             7
    ##  2 que       yo             5
    ##  3 te        va             5
    ##  4 de        vacaciones     4
    ##  5 en        instagram      4
    ##  6 haga      falta          4
    ##  7 hawái     de             4
    ##  8 instagram lo             4
    ##  9 lindo     en             4
    ## 10 lo        que            4
    ## # … with 132 more rows
…
Ahora analicemos el contexto de la canción

``` r
hawai_words<-hawai_df%>%
  unnest_tokens(word,Letra)%>%
  filter(!word %in% stop_words_es)%>%
  add_count(word,name='total_words')%>%
  filter(total_words>1)%>%
  select(-texto)

hawai_words
```

    ## # A tibble: 89 x 3
    ##     line word     total_words
    ##    <int> <chr>          <int>
    ##  1     1 deja               2
    ##  2     1 mentirte           2
    ##  3     2 foto               2
    ##  4     2 subiste            2
    ##  5     2 diciendo           2
    ##  6     2 cielo              2
    ##  7     3 bebé               2
    ##  8     4 diré               2
    ##  9     4 quién              2
    ## 10     5 vieron             2
    ## # … with 79 more rows

Ahora analicemos las correlaciones de las palabras

``` r
hawai_words%>%
  pairwise_cor(word,line,sort=TRUE, upper=FALSE)
```

    ## Warning: `tbl_df()` is deprecated as of dplyr 1.0.0.
    ## Please use `tibble::as_tibble()` instead.
    ## This warning is displayed once every 8 hours.
    ## Call `lifecycle::last_warnings()` to see where this warning was generated.

    ## # A tibble: 406 x 3
    ##    item1    item2    correlation
    ##    <chr>    <chr>          <dbl>
    ##  1 deja     mentirte        1.  
    ##  2 foto     subiste         1.  
    ##  3 foto     diciendo        1.  
    ##  4 subiste  diciendo        1.  
    ##  5 foto     cielo           1.  
    ##  6 subiste  cielo           1.  
    ##  7 diciendo cielo           1.  
    ##  8 diré     quién           1.  
    ##  9 amor     compra          1.  
    ## 10 puede    haga            1.00
    ## # … with 396 more rows

la palabra foto adquiere una nueva importancia

``` r
hawai_words%>%
  pairwise_cor(word,line,sort=TRUE, upper=FALSE)%>%
  filter(item1 == 'foto')
```

    ## # A tibble: 26 x 3
    ##    item1 item2    correlation
    ##    <chr> <chr>          <dbl>
    ##  1 foto  subiste       1.    
    ##  2 foto  diciendo      1.    
    ##  3 foto  cielo         1.    
    ##  4 foto  bebé         -0.0556
    ##  5 foto  diré         -0.0556
    ##  6 foto  quién        -0.0556
    ##  7 foto  vieron       -0.0556
    ##  8 foto  déjame       -0.0556
    ##  9 foto  cómo         -0.0556
    ## 10 foto  amor         -0.0556
    ## # … with 16 more rows
…
``` r
hawai_words
```

    ## # A tibble: 89 x 3
    ##     line word     total_words
    ##    <int> <chr>          <int>
    ##  1     1 deja               2
    ##  2     1 mentirte           2
    ##  3     2 foto               2
    ##  4     2 subiste            2
    ##  5     2 diciendo           2
    ##  6     2 cielo              2
    ##  7     3 bebé               2
    ##  8     4 diré               2
    ##  9     4 quién              2
    ## 10     5 vieron             2
    ## # … with 79 more rows
…
## Latent Dirichlet allocation

``` r
hawai_lda <- LDA(hawai_dtm, k = 2, control = list(seed = 1234))
hawai_topics <- tidy(hawai_lda, matrix = "beta")
hawai_topics <- hawai_topics%>%
  arrange(desc(beta))%>%
  filter(!term %in% stop_words_es)%>%
  filter(!term %in% c('va','na','pa'))

hawai_topics
```

    ## # A tibble: 52 x 3
    ##    topic term         beta
    ##    <int> <chr>       <dbl>
    ##  1     2 hawái      0.117 
    ##  2     2 vacaciones 0.117 
    ##  3     2 lindo      0.117 
    ##  4     2 instagram  0.117 
    ##  5     2 posteas    0.117 
    ##  6     1 bien       0.0889
    ##  7     1 puede      0.0889
    ##  8     1 haga       0.0889
    ##  9     1 falta      0.0889
    ## 10     1 vea        0.0889
    ## # … with 42 more rows
…
    ## # A tibble: 2 x 4
    ##   term      topic1 topic2 log_ratio
    ##   <chr>      <dbl>  <dbl>     <dbl>
    ## 1 bebé   8.19e-276 0.0292      909.
    ## 2 vieron 7.78e-277 0.0292      912.

``` r
hawai_documents <- tidy(hawai_lda, matrix = "gamma")
hawai_documents
```

    ## # A tibble: 76 x 3
    ##    document topic   gamma
    ##    <chr>    <int>   <dbl>
    ##  1 1            1 0.00476
    ##  2 2            1 0.00239
    ##  3 3            1 0.00942
    ##  4 4            1 0.00476
    ##  5 5            1 0.00942
    ##  6 6            1 0.00942
    ##  7 7            1 0.995  
    ##  8 9            1 0.998  
    ##  9 10           1 0.999  
    ## 10 11           1 0.00239
    ## # … with 66 more rows
…
