…
## Base de datos

``` r
members <- read_csv("https://raw.githubusercontent.com/rfordatascience/tidytuesday/master/data/2020/2020-09-22/members.csv")
```

``` r
members
```

    ## # A tibble: 76,519 x 21
    ##    expedition_id member_id peak_id peak_name  year season sex     age
    ##    <chr>         <chr>     <chr>   <chr>     <dbl> <chr>  <chr> <dbl>
    ##  1 AMAD78301     AMAD7830… AMAD    Ama Dabl…  1978 Autumn M        40
    ##  2 AMAD78301     AMAD7830… AMAD    Ama Dabl…  1978 Autumn M        41
    ##  3 AMAD78301     AMAD7830… AMAD    Ama Dabl…  1978 Autumn M        27
    ##  4 AMAD78301     AMAD7830… AMAD    Ama Dabl…  1978 Autumn M        40
    ##  5 AMAD78301     AMAD7830… AMAD    Ama Dabl…  1978 Autumn M        34
    ##  6 AMAD78301     AMAD7830… AMAD    Ama Dabl…  1978 Autumn M        25
    ##  7 AMAD78301     AMAD7830… AMAD    Ama Dabl…  1978 Autumn M        41
    ##  8 AMAD78301     AMAD7830… AMAD    Ama Dabl…  1978 Autumn M        29
    ##  9 AMAD79101     AMAD7910… AMAD    Ama Dabl…  1979 Spring M        35
    ## 10 AMAD79101     AMAD7910… AMAD    Ama Dabl…  1979 Spring M        37
    ## # … with 76,509 more rows, and 13 more variables: citizenship <chr>,
    ## #   expedition_role <chr>, hired <lgl>, highpoint_metres <dbl>, success <lgl>,
    ## #   solo <lgl>, oxygen_used <lgl>, died <lgl>, death_cause <chr>,
    ## #   death_height_metres <dbl>, injured <lgl>, injury_type <chr>,
    ## #   injury_height_metres <dbl>
…
